^F:\C++\NEV\SERCHSERVICE\SERCHSERVICE\SERCHSERVICE\DEBUG\DOCUMENT.OBJ|F:\C++\NEV\SERCHSERVICE\SERCHSERVICE\SERCHSERVICE\DEBUG\MAIN.OBJ|F:\C++\NEV\SERCHSERVICE\SERCHSERVICE\SERCHSERVICE\DEBUG\READ_INPUT_FUNCTIONS.OBJ|F:\C++\NEV\SERCHSERVICE\SERCHSERVICE\SERCHSERVICE\DEBUG\REQUEST_QUEUE.OBJ|F:\C++\NEV\SERCHSERVICE\SERCHSERVICE\SERCHSERVICE\DEBUG\SEARCH_SERVER.OBJ|F:\C++\NEV\SERCHSERVICE\SERCHSERVICE\SERCHSERVICE\DEBUG\STRING_PROCESSING.OBJ
C:\PROGRAM FILES (X86)\WINDOWS KITS\10\LIB\10.0.17763.0\UM\X86\KERNEL32.LIB
C:\PROGRAM FILES (X86)\WINDOWS KITS\10\LIB\10.0.17763.0\UM\X86\USER32.LIB
C:\PROGRAM FILES (X86)\WINDOWS KITS\10\LIB\10.0.17763.0\UM\X86\GDI32.LIB
C:\PROGRAM FILES (X86)\WINDOWS KITS\10\LIB\10.0.17763.0\UM\X86\WINSPOOL.LIB
C:\PROGRAM FILES (X86)\WINDOWS KITS\10\LIB\10.0.17763.0\UM\X86\COMDLG32.LIB
C:\PROGRAM FILES (X86)\WINDOWS KITS\10\LIB\10.0.17763.0\UM\X86\ADVAPI32.LIB
C:\PROGRAM FILES (X86)\WINDOWS KITS\10\LIB\10.0.17763.0\UM\X86\SHELL32.LIB
C:\PROGRAM FILES (X86)\WINDOWS KITS\10\LIB\10.0.17763.0\UM\X86\OLE32.LIB
C:\PROGRAM FILES (X86)\WINDOWS KITS\10\LIB\10.0.17763.0\UM\X86\OLEAUT32.LIB
C:\PROGRAM FILES (X86)\WINDOWS KITS\10\LIB\10.0.17763.0\UM\X86\UUID.LIB
C:\PROGRAM FILES (X86)\WINDOWS KITS\10\LIB\10.0.17763.0\UM\X86\ODBC32.LIB
C:\PROGRAM FILES (X86)\WINDOWS KITS\10\LIB\10.0.17763.0\UM\X86\ODBCCP32.LIB
F:\C++\NEV\SERCHSERVICE\SERCHSERVICE\SERCHSERVICE\DEBUG\DOCUMENT.OBJ
F:\C++\NEV\SERCHSERVICE\SERCHSERVICE\SERCHSERVICE\DEBUG\MAIN.OBJ
F:\C++\NEV\SERCHSERVICE\SERCHSERVICE\SERCHSERVICE\DEBUG\READ_INPUT_FUNCTIONS.OBJ
F:\C++\NEV\SERCHSERVICE\SERCHSERVICE\SERCHSERVICE\DEBUG\REQUEST_QUEUE.OBJ
F:\C++\NEV\SERCHSERVICE\SERCHSERVICE\SERCHSERVICE\DEBUG\SEARCH_SERVER.OBJ
F:\C++\NEV\SERCHSERVICE\SERCHSERVICE\SERCHSERVICE\DEBUG\STRING_PROCESSING.OBJ
C:\WINDOWS\SYSTEM32\TZRES.DLL
C:\WINDOWS\GLOBALIZATION\SORTING\SORTDEFAULT.NLS
C:\PROGRAM FILES (X86)\MICROSOFT VISUAL STUDIO\2017\COMMUNITY\VC\TOOLS\MSVC\14.16.27023\LIB\X86\MSVCPRTD.LIB
C:\PROGRAM FILES (X86)\MICROSOFT VISUAL STUDIO\2017\COMMUNITY\VC\TOOLS\MSVC\14.16.27023\LIB\X86\MSVCRTD.LIB
C:\PROGRAM FILES (X86)\MICROSOFT VISUAL STUDIO\2017\COMMUNITY\VC\TOOLS\MSVC\14.16.27023\LIB\X86\OLDNAMES.LIB
C:\PROGRAM FILES (X86)\MICROSOFT VISUAL STUDIO\2017\COMMUNITY\VC\TOOLS\MSVC\14.16.27023\LIB\X86\VCRUNTIMED.LIB
C:\PROGRAM FILES (X86)\WINDOWS KITS\10\LIB\10.0.17763.0\UCRT\X86\UCRTD.LIB
C:\PROGRAM FILES (X86)\MICROSOFT VISUAL STUDIO\2017\COMMUNITY\VC\TOOLS\MSVC\14.16.27023\BIN\HOSTX86\X86\LINK.EXE
C:\PROGRAM FILES (X86)\WINDOWS KITS\10\BIN\10.0.17763.0\X86\RC.EXE
C:\PROGRAM FILES (X86)\MICROSOFT VISUAL STUDIO\2017\COMMUNITY\VC\TOOLS\MSVC\14.16.27023\BIN\HOSTX86\X86\CVTRES.EXE
